{
    "type": "radio",
    "values": {
        "1": "KosakkenTaumel",
        "2": "Kosak",
        "3": "Kosak all",
        "4": "Slibowitz",
        "5": "nein"
    },
    "date_of_issue": false
}
